{
  "project_info": {
    "project_number": "415270087793",
    "firebase_url": "https://pruebafirebase-b5e85.firebaseio.com",
    "project_id": "pruebafirebase-b5e85",
    "storage_bucket": "pruebafirebase-b5e85.appspot.com"
  },
  "client": [
    {
      "client_info": {
        "mobilesdk_app_id": "1:415270087793:android:24c79235361bb39d",
        "android_client_info": {
          "package_name": "com.example.gerar.pruebafirebase"
        }
      },
      "oauth_client": [
        {
          "client_id": "415270087793-130bvk9ppl46ohgpjte68o4k4q7da034.apps.googleusercontent.com",
          "client_type": 3
        }
      ],
      "api_key": [
        {
          "current_key": "AIzaSyBh1b0p7JBZTEL7tjQkfIjtUPoODXgMKPU"
        }
      ],
      "services": {
        "analytics_service": {
          "status": 1
        },
        "appinvite_service": {
          "status": 1,
          "other_platform_oauth_client": []
        },
        "ads_service": {
          "status": 2
        }
      }
    },
    {
      "client_info": {
        "mobilesdk_app_id": "1:415270087793:android:7bab5f962c5d6028",
        "android_client_info": {
          "package_name": "com.example.capsula02.pruebafirebase"
        }
      },
      "oauth_client": [
        {
          "client_id": "415270087793-130bvk9ppl46ohgpjte68o4k4q7da034.apps.googleusercontent.com",
          "client_type": 3
        }
      ],
      "api_key": [
        {
          "current_key": "AIzaSyBh1b0p7JBZTEL7tjQkfIjtUPoODXgMKPU"
        }
      ],
      "services": {
        "analytics_service": {
          "status": 1
        },
        "appinvite_service": {
          "status": 1,
          "other_platform_oauth_client": []
        },
        "ads_service": {
          "status": 2
        }
      }
    }
  ],
  "configuration_version": "1"
}